[
  {
    "path": "/api/v1/register",
    "method": "POST",
    "module": "user",
    "tag": "register",
    "endpoint_filter": "register",
    "middleware": []
  },
  {
    "path": "/api/v1/register_admin",
    "method": "POST",
    "module": "user",
    "tag": "register_admin",
    "endpoint_filter": "register_admin",
    "middleware": [
      "auth_admin"
    ]
  },
  {
    "path": "/api/v1/verification",
    "method": "GET",
    "module": "user",
    "tag": "admin_verification",
    "endpoint_filter": "admin_verification",
    "middleware": []
  },
  {
    "path": "/api/v1/login",
    "method": "POST",
    "module": "auth",
    "tag": "login",
    "endpoint_filter": "login",
    "middleware": []
  },
  {
    "path": "/api/v1/login_admin",
    "method": "POST",
    "module": "auth",
    "tag": "login_admin",
    "endpoint_filter": "login_admin",
    "middleware": []
  },
  {
    "path": "/api/v1/detail_user/:id",
    "method": "GET",
    "module": "user",
    "tag": "detail_user",
    "endpoint_filter": "detail_user",
    "middleware": [
      "auth"
    ]
  },
  {
    "path": "/api/v1/account_info",
    "method": "GET",
    "module": "user",
    "tag": "account_info",
    "endpoint_filter": "account_info",
    "middleware": [
      "auth"
    ]
  },
  {
    "path": "/api/v1/user_file",
    "method": "GET",
    "module": "user",
    "tag": "user_file",
    "endpoint_filter": "user_file",
    "middleware": [
      "auth"
    ]
  },
  {
    "path": "/api/v1/user",
    "method": "PUT",
    "module": "user",
    "tag": "update_user",
    "endpoint_filter": "update_user",
    "middleware": [
      "auth"
    ]
  },
  {
    "path": "/api/v1/account_info",
    "method": "PUT",
    "module": "user",
    "tag": "account_info",
    "endpoint_filter": "update_account_info",
    "middleware": [
      "auth"
    ]
  },
  {
    "path": "/api/v1/update_password",
    "method": "PUT",
    "module": "user",
    "tag": "update_password",
    "endpoint_filter": "update_user_password",
    "middleware": [
      "auth"
    ]
  },
  {
    "path": "/api/v1/user_recommendation",
    "method": "GET",
    "module": "user",
    "tag": "user_recommendation",
    "endpoint_filter": "user_recommendation",
    "middleware": [
      "auth"
    ]
  },
  {
    "path": "/api/v1/user/verification",
    "method": "PUT",
    "module": "user",
    "tag": "user_verification",
    "endpoint_filter": "user_verification",
    "middleware": [
      "auth_admin"
    ]
  },
  {
    "path": "/api/v1/user/list",
    "method": "GET",
    "module": "user",
    "tag": "list_nasabah",
    "endpoint_filter": "list_nasabah",
    "middleware": [
      "auth_admin"
    ]
  },
  {
    "path": "/api/v1/list/location_code",
    "method": "GET",
    "module": "user",
    "tag": "get_location_code",
    "endpoint_filter": "get_location_code",
    "middleware": []
  },
  {
    "path": "/api/v1/list/location",
    "method": "GET",
    "module": "user",
    "tag": "location_list",
    "endpoint_filter": "location_list",
    "middleware": []
  },
  {
    "path": "/api/v1/list/supplier",
    "method": "GET",
    "module": "user",
    "tag": "support_supplier_list",
    "endpoint_filter": "support_supplier_list",
    "middleware": []
  },
  {
    "path": "/api/v1/supplier",
    "method": "POST",
    "module": "user",
    "tag": "create_supplier_recommend",
    "endpoint_filter": "create_supplier_recommend",
    "middleware": [
      "auth"
    ]
  },
  {
    "path": "/api/v1/business/:id",
    "method": "GET",
    "module": "user",
    "tag": "detail_business",
    "endpoint_filter": "detail_business",
    "middleware": [
      "auth"
    ]
  },
  {
    "path": "/api/v1/business/:id",
    "method": "PUT",
    "module": "user",
    "tag": "update_business",
    "endpoint_filter": "update_business",
    "middleware": [
      "auth"
    ]
  },
  {
    "path": "/api/v1/dashboard_data",
    "method": "GET",
    "module": "user",
    "tag": "dashboard_data",
    "endpoint_filter": "dashboard_data",
    "middleware": ["auth_admin"]
  },
  {
    "path": "/api/v1/admins",
    "method": "GET",
    "module": "user",
    "tag": "list_admin",
    "endpoint_filter": "list_admin",
    "middleware": ["auth_admin"]
  },
  {
    "path": "/api/v1/admins/status/:id",
    "method": "PUT",
    "module": "user",
    "tag": "change_status_admin",
    "endpoint_filter": "change_status_admin",
    "middleware": ["auth_admin"]
  },
  {
    "path": "/api/v1/user/detail/:id",
    "method": "GET",
    "module": "user",
    "tag": "detail_user_full",
    "endpoint_filter": "detail_user_full",
    "middleware": ["auth_admin"]
  },
  {
    "path": "/api/v1/user/:id/delete",
    "method": "DELETE",
    "module": "user",
    "tag": "delete_user",
    "endpoint_filter": "delete_user",
    "middleware": ["auth_admin"]
  }
]